org/bitbucket/infovillafoundation/wayyan/javafxtest/Question10Controller.class
org/bitbucket/infovillafoundation/wayyan/javafxtest/Question8Controller$1.class
org/bitbucket/infovillafoundation/wayyan/javafxtest/ExtrovertDefinitionController.class
org/bitbucket/infovillafoundation/wayyan/javafxtest/Result.class
org/bitbucket/infovillafoundation/wayyan/javafxtest/Question5Controller$1.class
org/bitbucket/infovillafoundation/wayyan/javafxtest/Question10Controller$1.class
org/bitbucket/infovillafoundation/wayyan/javafxtest/Question3Controller.class
org/bitbucket/infovillafoundation/wayyan/javafxtest/Question9Controller.class
org/bitbucket/infovillafoundation/wayyan/javafxtest/Question6Controller.class
org/bitbucket/infovillafoundation/wayyan/javafxtest/Question3Controller$1.class
org/bitbucket/infovillafoundation/wayyan/javafxtest/Question8Controller.class
org/bitbucket/infovillafoundation/wayyan/javafxtest/Main.class
org/bitbucket/infovillafoundation/wayyan/javafxtest/Question2Controller$1.class
org/bitbucket/infovillafoundation/wayyan/javafxtest/Question5Controller.class
org/bitbucket/infovillafoundation/wayyan/javafxtest/Question2Controller.class
org/bitbucket/infovillafoundation/wayyan/javafxtest/IntrovertDefinitionController.class
org/bitbucket/infovillafoundation/wayyan/javafxtest/Question1Controller$1.class
org/bitbucket/infovillafoundation/wayyan/javafxtest/WelcomeController.class
org/bitbucket/infovillafoundation/wayyan/javafxtest/Question9Controller$1.class
org/bitbucket/infovillafoundation/wayyan/javafxtest/Question6Controller$1.class
org/bitbucket/infovillafoundation/wayyan/javafxtest/Question4Controller.class
org/bitbucket/infovillafoundation/wayyan/javafxtest/Question7Controller.class
org/bitbucket/infovillafoundation/wayyan/javafxtest/Question1Controller.class
org/bitbucket/infovillafoundation/wayyan/javafxtest/Question4Controller$1.class
org/bitbucket/infovillafoundation/wayyan/javafxtest/FinishController.class
org/bitbucket/infovillafoundation/wayyan/javafxtest/Question7Controller$1.class
